{
  "prepare_queue": {
    "installed": [],
    "uninstalled": []
  },
  "config_munge": {
    "files": {
      "*-Info.plist": {
        "parents": {
          "NSCameraUsageDescription": [
            {
              "xml": "<string>Blink uses your camera to make video calls.</string>",
              "count": 5
            },
            {
              "xml": "<string>This Application uses your camera to make video calls.</string>",
              "count": 1
            }
          ],
          "NSContactsUsageDescription": [
            {
              "xml": "<string>Blink needs access to your contacts in order to be able to call them.</string>",
              "count": 5
            },
            {
              "xml": "<string>This Application needs access to your contacts in order to be able to call them.</string>",
              "count": 1
            }
          ],
          "NSMicrophoneUsageDescription": [
            {
              "xml": "<string>Blink uses your microphone to make calls.</string>",
              "count": 5
            },
            {
              "xml": "<string>This Application uses your microphone to make calls.</string>",
              "count": 1
            }
          ],
          "NSBluetoothAlwaysUsageDescription": [
            {
              "xml": "<string>This Application uses your wireless headphones and microphone to make calls.</string>",
              "count": 1
            }
          ]
        }
      },
      "config.xml": {
        "parents": {
          "/*": [
            {
              "xml": "<feature name=\"iosrtcPlugin\"><param name=\"ios-package\" value=\"iosrtcPlugin\" /><param name=\"onload\" value=\"true\" /></feature>",
              "count": 1
            },
            {
              "xml": "<feature name=\"InAppBrowser\"><param name=\"ios-package\" value=\"CDVInAppBrowser\" /><param name=\"onload\" value=\"true\" /></feature>",
              "count": 1
            },
            {
              "xml": "<feature name=\"UIInAppBrowser\"><param name=\"ios-package\" value=\"CDVUIInAppBrowser\" /><param name=\"onload\" value=\"true\" /></feature>",
              "count": 1
            },
            {
              "xml": "<feature name=\"WKInAppBrowser\"><param name=\"ios-package\" value=\"CDVWKInAppBrowser\" /><param name=\"onload\" value=\"true\" /></feature>",
              "count": 1
            },
            {
              "xml": "<feature name=\"RemoteInjection\"><param name=\"ios-package\" value=\"CDVRemoteInjectionPlugin\" /><param name=\"onload\" value=\"true\" /></feature>",
              "count": 1
            },
            {
              "xml": "<feature name=\"CDVWKWebViewEngine\"><param name=\"ios-package\" value=\"CDVWKWebViewEngine\" /></feature>",
              "count": 1
            },
            {
              "xml": "<preference name=\"CordovaWebViewEngine\" value=\"CDVWKWebViewEngine\" />",
              "count": 1
            }
          ]
        }
      }
    }
  },
  "installed_plugins": {
    "cordova-plugin-add-swift-support": {
      "PACKAGE_NAME": "$(PRODUCT_BUNDLE_IDENTIFIER)"
    },
    "cordova-plugin-iosrtc": {
      "PACKAGE_NAME": "$(PRODUCT_BUNDLE_IDENTIFIER)"
    },
    "cordova-plugin-whitelist": {
      "PACKAGE_NAME": "$(PRODUCT_BUNDLE_IDENTIFIER)"
    },
    "cordova-plugin-inappbrowser": {
      "PACKAGE_NAME": "$(PRODUCT_BUNDLE_IDENTIFIER)"
    },
    "cordova-plugin-remote-injection": {
      "PACKAGE_NAME": "$(PRODUCT_BUNDLE_IDENTIFIER)"
    },
    "cordova-plugin-wkwebview-engine": {
      "PACKAGE_NAME": "$(PRODUCT_BUNDLE_IDENTIFIER)"
    }
  },
  "dependent_plugins": {},
  "modules": [
    {
      "id": "cordova-plugin-iosrtc.Plugin",
      "file": "plugins/cordova-plugin-iosrtc/dist/cordova-plugin-iosrtc.js",
      "pluginId": "cordova-plugin-iosrtc",
      "clobbers": [
        "cordova.plugins.iosrtc"
      ]
    },
    {
      "id": "cordova-plugin-inappbrowser.inappbrowser",
      "file": "plugins/cordova-plugin-inappbrowser/www/inappbrowser.js",
      "pluginId": "cordova-plugin-inappbrowser",
      "clobbers": [
        "cordova.InAppBrowser.open",
        "window.open"
      ]
    },
    {
      "id": "cordova-plugin-wkwebview-engine.ios-wkwebview-exec",
      "file": "plugins/cordova-plugin-wkwebview-engine/src/www/ios/ios-wkwebview-exec.js",
      "pluginId": "cordova-plugin-wkwebview-engine",
      "clobbers": [
        "cordova.exec"
      ]
    },
    {
      "id": "cordova-plugin-wkwebview-engine.ios-wkwebview",
      "file": "plugins/cordova-plugin-wkwebview-engine/src/www/ios/ios-wkwebview.js",
      "pluginId": "cordova-plugin-wkwebview-engine",
      "clobbers": [
        "window.WkWebView"
      ]
    }
  ],
  "plugin_metadata": {
    "cordova-plugin-add-swift-support": "2.0.2",
    "cordova-plugin-iosrtc": "6.0.12",
    "cordova-plugin-whitelist": "1.3.4",
    "cordova-plugin-inappbrowser": "3.2.0",
    "cordova-plugin-remote-injection": "0.5.2",
    "cordova-plugin-wkwebview-engine": "1.2.1"
  }
}
